{
    "last_remote_check": 1590767075,
    "hooks": {
        "model-log": {
            "name": "model-log",
            "description": "Voyager Model Log",
            "version": "v1.0.2",
            "enabled": true
        }
    }
}